
Unare:

{lat: 8.18669, lng: -62.92849}, 
{lat: 8.14567, lng: -62.94733}, 
{lat: 8.12726, lng: -62.90351}, 
{lat: 8.13818, lng: -62.88574}, 
{lat: 8.14255, lng: -62.87364}, 
{lat: 8.14183, lng: -62.86188}, 
{lat: 8.15517, lng: -62.85098}, 
{lat: 8.15474, lng: -62.84695}, 
{lat: 8.16014, lng: -62.84495}, 
{lat: 8.16564, lng: -62.83906}, 
{lat: 8.17794, lng: -62.84073}, 
{lat: 8.1681, lng: -62.82569}, 
{lat: 8.15987, lng: -62.81936}, 
{lat: 8.15911, lng: -62.81372}, 
{lat: 8.16345, lng: -62.80704}, 
{lat: 8.1773, lng: -62.81135}, 
{lat: 8.20436, lng: -62.7988}, 
{lat: 8.24161, lng: -62.76808}, 
{lat: 8.24353, lng: -62.72294}, 
{lat: 8.25155, lng: -62.72163}, 
{lat: 8.25958, lng: -62.7272}, 
{lat: 8.26247, lng: -62.73059}, 
{lat: 8.26707, lng: -62.72633}, 
{lat: 8.26767, lng: -62.72931}, 
{lat: 8.2698, lng: -62.73109}, 
{lat: 8.2766, lng: -62.73292}, 
{lat: 8.28447, lng: -62.73626}, 
{lat: 8.29098, lng: -62.74389}, 
{lat: 8.29669, lng: -62.7485}, 
{lat: 8.29824, lng: -62.75432}, 
{lat: 8.30245, lng: -62.7592}, 
{lat: 8.30802, lng: -62.76066}, 
{lat: 8.31983, lng: -62.76562}, 
{lat: 8.33541, lng: -62.76882}, 
{lat: 8.3323, lng: -62.79158}, 
{lat: 8.32818, lng: -62.80611}, 
{lat: 8.31983, lng: -62.812}, 
{lat: 8.30978, lng: -62.82132}, 
{lat: 8.30024, lng: -62.82774}, 
{lat: 8.29059, lng: -62.83006}, 
{lat: 8.29163, lng: -62.83877}, 
{lat: 8.28689, lng: -62.8437}, 
{lat: 8.2839, lng: -62.85211}, 
{lat: 8.27926, lng: -62.85704}, 
{lat: 8.2736, lng: -62.86472}, 
{lat: 8.27084, lng: -62.87292}, 
{lat: 8.26688, lng: -62.89055}, 
{lat: 8.26599, lng: -62.90106}, 
{lat: 8.27902, lng: -62.94557}, 
{lat: 8.2514, lng: -62.95967}, 
{lat: 8.22581, lng: -62.97256}, 
{lat: 8.21101, lng: -62.95988}, 
{lat: 8.20904, lng: -62.93732}, 
{lat: 8.30671, lng: -62.68439}
